\relax 
\providecommand\hyper@newdestlabel[2]{}
\providecommand\HyperFirstAtBeginDocument{\AtBeginDocument}
\HyperFirstAtBeginDocument{\ifx\hyper@anchor\@undefined
\global\let\oldnewlabel\newlabel
\gdef\newlabel#1#2{\newlabelxx{#1}#2}
\gdef\newlabelxx#1#2#3#4#5#6{\oldnewlabel{#1}{{#2}{#3}}}
\AtEndDocument{\ifx\hyper@anchor\@undefined
\let\newlabel\oldnewlabel
\fi}
\fi}
\global\let\hyper@last\relax 
\gdef\HyperFirstAtBeginDocument#1{#1}
\providecommand\HyField@AuxAddToFields[1]{}
\providecommand\HyField@AuxAddToCoFields[2]{}
\@writefile{toc}{\contentsline {section}{\numberline {1}Introduction}{2}{section.1}\protected@file@percent }
\@writefile{toc}{\contentsline {section}{\numberline {2}Measurement preparation}{2}{section.2}\protected@file@percent }
\@writefile{toc}{\contentsline {subsection}{\numberline {2.1}PYNQ development board}{2}{subsection.2.1}\protected@file@percent }
\@writefile{lof}{\contentsline {figure}{\numberline {1}{\ignorespaces PYNQ development board}}{2}{figure.1}\protected@file@percent }
\citation{PYNQ-Z2_datasheet}
\@writefile{toc}{\contentsline {subsection}{\numberline {2.2}Measured signals}{3}{subsection.2.2}\protected@file@percent }
\@writefile{toc}{\contentsline {subsection}{\numberline {2.3}FPGA circuit}{3}{subsection.2.3}\protected@file@percent }
\@writefile{lof}{\contentsline {figure}{\numberline {2}{\ignorespaces FPGA circuit block design}}{3}{figure.2}\protected@file@percent }
\@writefile{toc}{\contentsline {subsection}{\numberline {2.4}Incoming data generator}{3}{subsection.2.4}\protected@file@percent }
\@writefile{toc}{\contentsline {subsection}{\numberline {2.5}Expected result}{4}{subsection.2.5}\protected@file@percent }
\@writefile{lof}{\contentsline {figure}{\numberline {3}{\ignorespaces Timing examples}}{4}{figure.3}\protected@file@percent }
\newlabel{fig:timing examples}{{3}{4}{Timing examples}{figure.3}{}}
\@writefile{toc}{\contentsline {section}{\numberline {3}Measurement}{4}{section.3}\protected@file@percent }
\@writefile{toc}{\contentsline {subsection}{\numberline {3.1}Process}{4}{subsection.3.1}\protected@file@percent }
\@writefile{lot}{\contentsline {table}{\numberline {1}{\ignorespaces Measured incoming data frequencies}}{4}{table.1}\protected@file@percent }
\newlabel{tab:measured_data_frequencies}{{1}{4}{Measured incoming data frequencies}{table.1}{}}
\@writefile{toc}{\contentsline {subsection}{\numberline {3.2}Results}{4}{subsection.3.2}\protected@file@percent }
\@writefile{lof}{\contentsline {figure}{\numberline {4}{\ignorespaces Ratio of $f_{sensor}$ and $f_{data}$ plotted againts data correctness (\textbf  {EXAMPLE})}}{5}{figure.4}\protected@file@percent }
\newlabel{fig:all_data_ratio_general}{{4}{5}{Ratio of $f_{sensor}$ and $f_{data}$ plotted againts data correctness (\textbf {EXAMPLE})}{figure.4}{}}
\@writefile{lof}{\contentsline {figure}{\numberline {5}{\ignorespaces Detail of data correctness (\textbf  {EXAMPLE})}}{6}{figure.5}\protected@file@percent }
\newlabel{fig:detail}{{5}{6}{Detail of data correctness (\textbf {EXAMPLE})}{figure.5}{}}
\@writefile{toc}{\contentsline {section}{\numberline {4}Conclusion}{7}{section.4}\protected@file@percent }
\@writefile{lot}{\contentsline {table}{\numberline {2}{\ignorespaces Results of measured data frequency and minimum sensor frequency}}{7}{table.2}\protected@file@percent }
\newlabel{tab:results}{{2}{7}{Results of measured data frequency and minimum sensor frequency}{table.2}{}}
\bibcite{PYNQ-Z2_datasheet}{1}
\gdef \@abspage@last{9}
